EDAV Fall 2019 PSet 5, part A
…
sunday2018 = thanksgiving %>% filter(year == 2018,DAY_OF_WEEK==7) %>% group_by(ORIGIN) %>% summarize(cancellations = sum(CANCELLED,na.rm=TRUE)) %>% arrange(-cancellations)

head(sunday2018,30)

## # A tibble: 30 x 2
##    ORIGIN cancellations
##    <fct>          <int>
##  1 ORD              123
##  2 MCI               66
##  3 MDW               53
##  4 LGA               19
##  5 DEN               18
##  6 DFW               16
##  7 LAX               13
##  8 ATL               12
##  9 BOS               11
## 10 LAS               11
## #  with 20 more rows
…
